[
	{
		"users" : {
			"items" : [
				{
					"id" : 1,
					"firstname" : "jason",
					"lastname"	: "villalon",
					"username"	: "jasonv",
					"password"	: "jasonv"
				}
			],
			"item_count" :  1
		}
	},
	{
        "purchaseorders": {
            "items": [
                {
                    "id": "1",
                    "po_number": "881234",
                    "producttype_id": "1",
					"style_id": "2",
					"destination_id": "1",
                    "vendor_id": "2",
                    "customer_id": 1,
					"factory_id" : "1",
                    "shipmode_id": "2",
                    "shipdate": "04/20/2014",
                    "orderqty": "20000",
                    "stylenum": "2",
					"fibercontent": "200",
                    "garmentweight": "0.5 kg",
                    "description": "Comfy Sweaters",
                    
                }
            ],
            "item_count": 1
        }
    },
    {
		"inspections": {
            "items": [
                {
                    "id": "1",
					"inspection_serial_id": "12014031501",
					"inspection_date": "03/15/2014",
                    "inspector_id": "1",
                    "co_inspector_id": "2",
					"status": "pending",
					"reinspect_count": "",
					"factory_id" : "1",
                    "inspection type" : "In-line",
                    "colorsize_defect_points": "",
                    "colorsize_POMs": "",
					"general_cleanliness": "ATU",
					"workflow_cleanliness": "ACCEPTED",
					"workflow_lighting": "UNACCEPTED",
					"workflow_ventilation": "ACCEPTED",
					"child_labor": "ACCEPTED",
					"totalnumworkers": "800",
					"totalcompletedqty": "1000",
					"totalinspecteqty": "2000",
					"totalrejectedqty": "300",
					"intime": "0900",
					"outtime": "1800",
					"remarks": "",
					"inspection_status": "COMPLETED",
					"factory_photos": "",
					"factory_contacts_fullname": "Bruce Lee",
					"factory_contacts_title": "Supervisor",
					"factory_contacts_emailaddress": "blee@hongkongfactory.com",
					"date_created": "04/15/2014",
					"date_modified": "04/15/2014"                    
                }
            ],
            "item_count": 1
        }
    },
	{
        "customers": {
            "items": [
                {
                    "id": "1",
                    "code": "ABCF",
                    "name": "Abercrombie & Fitch",
                },
                {
                    "id": "2",
                    "code": "AEO-CANADA",
                    "name": "AMERICAN EAGLE OUTFITTERS CANADA, CORP."
                },
                {
                    "id": "3",
                    "code": "AEO-USA",
                    "name": "AEO MANAGEMENT CO."
                },
                {
                    "id": "4",
                    "code": "AEO-WEB",
                    "name": "A.E. DIRECT CO."
                },
                {
                    "id": "5",
                    "code": "ALP-N-ROCK",
                    "name": "ALP-N-ROCK PREMIUM APPAREL"
                },
                {
                    "id": "6",
                    "code": "ANDREWGN",
                    "name": "ANDREW GN"
                },
                {
                    "id": "7",
                    "code": "ANNTAYLOR",
                    "name": "ANN TAYLOR INC"
                }
            ],
            "item_count": 7
        }
    },
	{
		"inspectors": {
			"items": [
				{
					"id": "1",
					"firstname": "Peter",
					"lastname": "Dinklage",
					"email": "peterdinklage@magtague.com",
					"qcapassword": "password123",
					"emailpassword" : "smtp_password_to_send_email",
					"role": "junior inspector",
					"status": "active",
					"associatedfirm": "magtague",
					"emailgroup": "test@magtague.com, lorenzo.trajano@roadlogica.com, jason.villalon@roadlogica.com, mark.monserrat@roadlogica.com",
					"language_id": "1"
				},
				{
					"id": "1",
					"firstname": "John",
					"lastname": "Woo",
					"email": "johnwoo@magtague.com",
					"qcapassword": "password123",
					"emailpassword" : "smtp_password_to_send_email",
					"role": "junior inspector",
					"status": "active",
					"associatedfirm": "magtague",
					"emailgroup": "test@magtague.com, lorenzo.trajano@roadlogica.com, jason.villalon@roadlogica.com, mark.monserrat@roadlogica.com",
					"language_id": "2"
				}
			],
			"item_count": 2
		}
    },
    {
		"link_vendor_customer": {
            "items":  [
                {   "id": "1",
                    "vendor_id" : "1",
                    "customer_id" : "1"
                },
                {   "id": "2",
                    "vendor_id" : "2",
                    "customer_id" : "2"
                },
                {   "id": "3",
                    "vendor_id" : "1",
                    "customer_id" : "3"
                },
                {   "id": "4",
                    "vendor_id" : "2",
                    "customer_id" : "4"
                },
                {   "id": "5",
                    "vendor_id" : "1",
                    "customer_id" : "4"
                }
            ],
            "item_count": 5
		}
	},
    {  
		"link_inspector_vendor": {
            "items":  [
                {   "id": "1",
                    "inspector_id" : "1",
                    "vendor_id" : "1"
                },
                {   "id": "2",
                    "inspector_id" : "1",
                    "vendor_id" : "2"
                },
                {   "id": "3",
                    "inspector_id" : "2",
                    "vendor_id" : "3"
                },
                {   "id": "4",
                    "inspector_id" : "2",
                    "vendor_id" : "4"
                }
			],
            "item_count": 4
		}
    },
    {
        "factories": {
            "items": [
                {
                    "id": "1",
                    "code": "ABC",
                    "name": "ABC Factory"
                },
                {
                    "id": "2",
                    "code": "DEF",
                    "name": "DEF Factory"
                }
            ],
            "item_count": 2
        }
    },
    {
        "vendors": {
            "items": [
                {
                    "id": "1",
                    "code": "MMCL",
                    "name": "M. Magtague Co., Ltd."
                },
                {
                    "id": "2",
                    "code": "MMIL",
                    "name": "M. Magtague International Ltd."
                },
                {
                    "id": "3",
                    "code": "GWDL",
                    "name": "Global Wise Development Ltd."
                },
                {
                    "id": "4",
                    "code": "PSIL",
                    "name": "Prime Spot Investments Ltd."
                }
            ],
            "item_count": 4
        }
    },
    {
        "defectcategories": {
            "items": [
                {
                    "id": "28",
                    "defectcategory": "\u5c3a\u5bf8"
                },
                {
                    "id": "29",
                    "defectcategory": "\u635f\u8017"
                },
                {
                    "id": "30",
                    "productid": "1",
                    "defectcategory": "\u5916\u89c2"
                },
                {
                    "id": "31",
                    "defectcategory": "\u5c01\u5370"
                },
                {
                    "id": "32",
                    "defectcategory": "Stain"
                },
                {
                    "id": "33",
                    "defectcategory": "Washing"
                },
                {
                    "id": "34",
                    "productid": "1",
                    "defectcategory": "Trims \/ Accessories"
                },
                {
                    "id": "35",
                    "productid": "1",
                    "defectcategory": "Packing"
                },
                {
                    "id": "36",
                    "defectcategory": "Other Comment"
                }
            ],
            "item_count": 9
        }
    },
    {
        "defectpoints": {
            "items": [
                {
                    "id": "8",
                    "defectcategoryid": "28",
                    "productid": "1",
                    "defectpoint": "Improper Measurement"
                },
                {
                    "id": "9",
                    "defectcategoryid": "28",
                    "productid": "1",
                    "defectpoint": "Wrong Size Indicated"
                },
                {
                    "id": "10",
                    "defectcategoryid": "28",
                    "productid": "1",
                    "defectpoint": "Wrong Front Panel"
                },
                {
                    "id": "11",
                    "defectcategoryid": "28",
                    "productid": "1",
                    "defectpoint": "Wrong Back Panel"
                },
                {
                    "id": "12",
                    "defectcategoryid": "28",
                    "productid": "1",
                    "defectpoint": "Wrong Sleeves"
                },
                {
                    "id": "26",
                    "defectcategoryid": "29",
                    "productid": "1",
                    "defectpoint": "Sleeve Damage"
                },
                {
                    "id": "27",
                    "defectcategoryid": "29",
                    "productid": "1",
                    "defectpoint": "Uneven Color"
                },
                {
                    "id": "28",
                    "defectcategoryid": "29",
                    "productid": "1",
                    "defectpoint": "Loose Thread"
                },
                {
                    "id": "29",
                    "defectcategoryid": "29",
                    "productid": "1",
                    "defectpoint": "Missing Buttons"
                }
            ],
            "item_count": 9
        }
    },
    {
        "colorsize_defectpoints": {
            "items": [
                {
                    "id": "1",
					"po_id": "1",
                    "colorsize_id": "1",
                    "defectpoint_id": "28",
                    "description" : "its bad. really bad",
                    "photos" : ""
                },
                {
                    "id": "2",
                    "po_id": "1",
					"colorsize_id": "1",
                    "defectpoint_id": "12",
                    "description" : "its bad. really bad. really, really bad.",
                    "photos" : ""
                },
                {
                    "id": "3",
                    "po_id": "1",
					"colorsize_id": "1",
                    "defectpoint_id": "28",
                    "description" : "its bad. really bad",
                    "photos" : ""
                },
                {
                    "id": "4",
                    "po_id": "1",
					"colorsize_id": "1",
                    "defectpoint_id": "8",
                    "description" : "its bad. really bad. really, really bad.",
                    "photos" : ""
                },
                {
                    "id": "5",
                    "po_id": "1",
					"colorsize_id": "1",
                    "defectpoint_id": "9",
                    "description" : "its bad. really bad",
                    "photos" : ""
                },
                {
                    "id": "6",
                    "po_id": "1",
					"colorsize_id": "1",
                    "defectpoint_id": "10",
                    "description" : "its bad. really bad. really, really bad.",
                    "photos" : ""
                }
            ],
            "item_count": 6
        }
    },
    {
        "colorsize": {
            "items": [
                {
                    "id": "1",
                    "po_id": "1",
                    "color": "red",
                    "size": "S",
                    "measurement_qty" : 5
                },
                {
                    "id": "2",
                    "po_id": "1",
                    "color": "red",
                    "size": "M",
                    "measurement_qty" : 3
                },
                {
                    "id": "3",
                    "po_id": "1",
                    "color": "red",
                    "size": "L",
                    "measurement_qty" : 7
                },
                {
                    "id": "4",
                    "po_id": "1",
                    "color": "red",
                    "size": "XL",
                    "measurement_qty" : 10
                },
                {
                    "id": "5",
                    "po_id": "1",
                    "color": "green",
                    "size": "S",
                    "style": "test",
                    "measurement_qty" : 5
                },
                {
                    "id": "6",
                    "po_id": "1",
                    "color": "green",
                    "size": "M",
                    "style": "test",
                    "measurement_qty" : 5
                },
                {
                    "id": "7",
                    "po_id": "1",
                    "color": "green",
                    "size": "L",
                    "measurement_qty" : 5
                },
                {
                    "id": "8",
                    "po_id": "1",
                    "color": "green",
                    "size": "XL",
                    "measurement_qty" : 5
                },
                {
                    "id": "9",
                    "po_id": "1",
                    "color": "blue",
                    "size": "S",
                    "style": "test",
                    "measurement_qty" : 5
                },
                {
                    "id": "10",
                    "po_id": "1",
                    "color": "blue",
                    "size": "M",
                    "style": "test",
                    "measurement_qty" : 5
                },
                {
                    "id": "11",
                    "custid": "ABCF",
                    "color": "blue",
                    "size": "L",
                    "measurement_qty" : 5
                },
                {
                    "id": "12",
                    "custid": "ABCF",
                    "color": "blue",
                    "size": "XL",
                    "measurement_qty" : 5
                }
            ],
            "item_count": 12
        }
    },
    {
        "producttypes": {
            "items": [
                {
                    "id": "1",
                    "code": "WV",
                    "name": "Woven"
                },
                {
                    "id": "2",
                    "code": "FK",
                    "name": "Fine Kit"
                },
                {
                    "id": "3",
                    "code": "NLJ",
                    "name": "Nylon Jackets"
                },
                {
                    "id": "4",
                    "code": "WLS",
                    "name": "Wool Sweaters"
                }
            ],
            "item_count": 4
        }
    },
    {
        "styles": {
            "items": [
                {
                    "id": "1",
                    "producttype": "2",
                    "code": "ATX1145",
                    "name": "Halter Top W/ Pockets"
                },
                {
                    "id": "2",
		    "producttype": "3",
                    "code": "SSUT12345",
                    "name": "Jacket with buttons"
                }
            ],
            "item_count": 2
        }
    },
    {
        "destination": {
            "items": [
                {
                    "id": "1",
                    "code": "Philippines",
                    "name": "Philippines"
                },
                {
                    "id": "2",
                    "code": "Olongapo",
                    "name": "Olongapo"
                },
                {
                    "id": "3",
                    "code": "Manila",
                    "name": "Manila"
                }
            ],
            "item_count": 3
        }
    },
    {
        "point_of_measures": {
            "items": [
                {
                    "id": "1",
					"product_id": "1",
                    "measurement": "CHEST WIDTH (1 inch BLW A\/H)"
                },
                {
                    "id": "2",
					"product_id": "1",
                    "measurement": "FRONT LENGTH (FRM HSP)"
                },
                {
                    "id": "3",
					"product_id": "1",
                    "measurement": "SHOULDER WIDTH"
                },
                {
                    "id": "4",
					"product_id": "1",
                    "measurement": "UPPER CHEST FRONT (6 inch DOWN FM HSP)"
                },
                {
                    "id": "5",
					"product_id": "2",
                    "measurement": "NECK HEIGHT 1X1 RIB DOUBLE COVER STITCH"
                }
            ],
            "item_count": 5
        }
    },
    {
        "colorsize_point_of_measures": {
            "items": [
                {
                    "id": "1",
					"colorsize_id": "1",
					"point_of_measure_id": "1",
                    "measurement" : "1 1/4"
                },
                {
                    "id": "2",
					"colorsize_id": "1",
					"point_of_measure_id": "2",
                    "measurement" : "2 1/3"
                },
                {
                    "id": "3",
					"colorsize_id": "1",
					"point_of_measure_id": "3",
                    "measurement" : "5 1/2"
                },
            ],
            "item_count": 3
        }
    },
    {
        "app_settings": {
            "items": [
                {
                    "id": "1",
                    "settings": "photo_limit",
                    "val": "3"
                },
                {
                    "id": "3",
                    "settings": "api_key",
                    "val": "qciapp-026d0feeefc0eed6485ca28402bdc5bb"
                },
                {
                    "id": "4",
                    "settings": "push_update",
                    "val": "VER1394096137"
                },
                {
                    "id": "5",
                    "settings": "check_changes",
                    "val": "0"
                },
                {
                    "id": "6",
                    "settings": "default_password",
                    "val": "QCAPPDefault123456"
                },
                {
                    "id": "7",
                    "settings": "measurement_settings",
                    "val": "5"
                }
            ],
            "item_count": 6
        }
    }
]